ISO-10303-21;
HEADER;
FILE_DESCRIPTION (( 'STEP AP214' ),
    '1' );
FILE_NAME ('89DEFAU10261248296373.step',
    '2006-10-26T16:48:29',
    ( 'SysAdmin' ),
    ( 'SolidWorks' ),
    'SwSTEP 2.0',
    'SolidWorks 2007',
    '' );
FILE_SCHEMA (( 'AUTOMOTIVE_DESIGN' ));
ENDSEC;

DATA;
#1 = VERTEX_POINT ( 'NONE', #270 ) ;
#2 = EDGE_CURVE ( 'NONE', #14, #8, #314, .T. ) ;
#3 = EDGE_CURVE ( 'NONE', #14, #58, #309, .T. ) ;
#4 = VERTEX_POINT ( 'NONE', #276 ) ;
#5 = VERTEX_POINT ( 'NONE', #275 ) ;
#6 = EDGE_CURVE ( 'NONE', #8, #4, #268, .T. ) ;
#7 = EDGE_LOOP ( 'NONE', ( #59, #54, #34, #61 ) ) ;
#8 = VERTEX_POINT ( 'NONE', #264 ) ;
#9 = ORIENTED_EDGE ( 'NONE', *, *, #10, .T. ) ;
#10 = EDGE_CURVE ( 'NONE', #15, #5, #263, .T. ) ;
#11 = EDGE_CURVE ( 'NONE', #58, #4, #303, .T. ) ;
#12 = ORIENTED_EDGE ( 'NONE', *, *, #6, .F. ) ;
#13 = ORIENTED_EDGE ( 'NONE', *, *, #2, .F. ) ;
#14 = VERTEX_POINT ( 'NONE', #290 ) ;
#15 = VERTEX_POINT ( 'NONE', #289 ) ;
#16 = ORIENTED_EDGE ( 'NONE', *, *, #50, .F. ) ;
#17 = EDGE_CURVE ( 'NONE', #18, #19, #287, .T. ) ;
#18 = VERTEX_POINT ( 'NONE', #350 ) ;
#19 = VERTEX_POINT ( 'NONE', #377 ) ;
#20 = ORIENTED_EDGE ( 'NONE', *, *, #101, .F. ) ;
#21 = ADVANCED_FACE ( 'NONE', ( #315 ), #353, .F. ) ;
#22 = ORIENTED_EDGE ( 'NONE', *, *, #23, .F. ) ;
#23 = EDGE_CURVE ( 'NONE', #24, #25, #316, .T. ) ;
#24 = VERTEX_POINT ( 'NONE', #318 ) ;
#25 = VERTEX_POINT ( 'NONE', #317 ) ;
#26 = ORIENTED_EDGE ( 'NONE', *, *, #27, .T. ) ;
#27 = EDGE_CURVE ( 'NONE', #24, #28, #358, .T. ) ;
#28 = VERTEX_POINT ( 'NONE', #369 ) ;
#29 = ORIENTED_EDGE ( 'NONE', *, *, #30, .T. ) ;
#30 = EDGE_CURVE ( 'NONE', #28, #31, #337, .T. ) ;
#31 = VERTEX_POINT ( 'NONE', #375 ) ;
#32 = ORIENTED_EDGE ( 'NONE', *, *, #11, .T. ) ;
#33 = ORIENTED_EDGE ( 'NONE', *, *, #49, .T. ) ;
#34 = ORIENTED_EDGE ( 'NONE', *, *, #35, .T. ) ;
#35 = EDGE_CURVE ( 'NONE', #56, #1, #374, .T. ) ;
#36 = EDGE_LOOP ( 'NONE', ( #81, #114, #153, #173 ) ) ;
#37 = EDGE_CURVE ( 'NONE', #115, #39, #373, .T. ) ;
#38 = VERTEX_POINT ( 'NONE', #349 ) ;
#39 = VERTEX_POINT ( 'NONE', #348 ) ;
#40 = ORIENTED_EDGE ( 'NONE', *, *, #41, .T. ) ;
#41 = EDGE_CURVE ( 'NONE', #39, #42, #347, .T. ) ;
#42 = VERTEX_POINT ( 'NONE', #341 ) ;
#43 = ORIENTED_EDGE ( 'NONE', *, *, #44, .F. ) ;
#44 = EDGE_CURVE ( 'NONE', #45, #42, #340, .T. ) ;
#45 = VERTEX_POINT ( 'NONE', #366 ) ;
#46 = ORIENTED_EDGE ( 'NONE', *, *, #162, .F. ) ;
#47 = EDGE_CURVE ( 'NONE', #38, #48, #365, .T. ) ;
#48 = VERTEX_POINT ( 'NONE', #332 ) ;
#49 = EDGE_CURVE ( 'NONE', #18, #15, #331, .T. ) ;
#50 = EDGE_CURVE ( 'NONE', #19, #5, #327, .T. ) ;
#51 = ADVANCED_FACE ( 'NONE', ( #323 ), #429, .F. ) ;
#52 = VERTEX_POINT ( 'NONE', #422 ) ;
#53 = VERTEX_POINT ( 'NONE', #409 ) ;
#54 = ORIENTED_EDGE ( 'NONE', *, *, #55, .T. ) ;
#55 = EDGE_CURVE ( 'NONE', #52, #56, #425, .T. ) ;
#56 = VERTEX_POINT ( 'NONE', #427 ) ;
#57 = ORIENTED_EDGE ( 'NONE', *, *, #3, .T. ) ;
#58 = VERTEX_POINT ( 'NONE', #426 ) ;
#59 = ORIENTED_EDGE ( 'NONE', *, *, #60, .F. ) ;
#60 = EDGE_CURVE ( 'NONE', #52, #53, #411, .T. ) ;
#61 = ORIENTED_EDGE ( 'NONE', *, *, #62, .F. ) ;
#62 = EDGE_CURVE ( 'NONE', #53, #1, #412, .T. ) ;
#63 = EDGE_LOOP ( 'NONE', ( #22, #26, #29, #20 ) ) ;
#64 = ADVANCED_FACE ( 'NONE', ( #432 ), #431, .F. ) ;
#65 = EDGE_LOOP ( 'NONE', ( #13, #57, #32, #12 ) ) ;
#66 = ADVANCED_FACE ( 'NONE', ( #380 ), #430, .F. ) ;
#67 = EDGE_LOOP ( 'NONE', ( #68, #69, #125, #127 ) ) ;
#68 = ORIENTED_EDGE ( 'NONE', *, *, #142, .T. ) ;
#69 = ORIENTED_EDGE ( 'NONE', *, *, #122, .F. ) ;
#70 = ORIENTED_EDGE ( 'NONE', *, *, #71, .F. ) ;
#71 = EDGE_CURVE ( 'NONE', #258, #208, #417, .T. ) ;
#72 = ORIENTED_EDGE ( 'NONE', *, *, #210, .F. ) ;
#73 = EDGE_LOOP ( 'NONE', ( #74, #97 ) ) ;
#74 = ORIENTED_EDGE ( 'NONE', *, *, #129, .F. ) ;
#75 = EDGE_CURVE ( 'NONE', #42, #169, #403, .T. ) ;
#76 = VERTEX_POINT ( 'NONE', #399 ) ;
#77 = ORIENTED_EDGE ( 'NONE', *, *, #196, .F. ) ;
#78 = EDGE_LOOP ( 'NONE', ( #79, #87 ) ) ;
#79 = ORIENTED_EDGE ( 'NONE', *, *, #80, .F. ) ;
#80 = EDGE_CURVE ( 'NONE', #241, #254, #398, .T. ) ;
#81 = ORIENTED_EDGE ( 'NONE', *, *, #82, .T. ) ;
#82 = EDGE_CURVE ( 'NONE', #48, #39, #393, .T. ) ;
#83 = ORIENTED_EDGE ( 'NONE', *, *, #84, .F. ) ;
#84 = EDGE_CURVE ( 'NONE', #170, #169, #389, .T. ) ;
#85 = ORIENTED_EDGE ( 'NONE', *, *, #86, .F. ) ;
#86 = EDGE_CURVE ( 'NONE', #45, #170, #465, .T. ) ;
#87 = ORIENTED_EDGE ( 'NONE', *, *, #249, .F. ) ;
#88 = EDGE_LOOP ( 'NONE', ( #70, #72 ) ) ;
#89 = ORIENTED_EDGE ( 'NONE', *, *, #255, .T. ) ;
#90 = ORIENTED_EDGE ( 'NONE', *, *, #96, .T. ) ;
#91 = EDGE_LOOP ( 'NONE', ( #158, #152 ) ) ;
#92 = EDGE_LOOP ( 'NONE', ( #186, #130, #131, #120, #93, #94 ) ) ;
#93 = ORIENTED_EDGE ( 'NONE', *, *, #126, .T. ) ;
#94 = ORIENTED_EDGE ( 'NONE', *, *, #111, .T. ) ;
#95 = ORIENTED_EDGE ( 'NONE', *, *, #35, .F. ) ;
#96 = EDGE_CURVE ( 'NONE', #206, #251, #479, .T. ) ;
#97 = ORIENTED_EDGE ( 'NONE', *, *, #10, .F. ) ;
#98 = EDGE_LOOP ( 'NONE', ( #99, #102 ) ) ;
#99 = ORIENTED_EDGE ( 'NONE', *, *, #124, .F. ) ;
#100 = ADVANCED_FACE ( 'NONE', ( #468 ), #457, .F. ) ;
#101 = EDGE_CURVE ( 'NONE', #25, #31, #480, .T. ) ;
#102 = ORIENTED_EDGE ( 'NONE', *, *, #11, .F. ) ;
#103 = EDGE_LOOP ( 'NONE', ( #104, #95 ) ) ;
#104 = ORIENTED_EDGE ( 'NONE', *, *, #148, .F. ) ;
#105 = EDGE_CURVE ( 'NONE', #25, #24, #478, .T. ) ;
#106 = ORIENTED_EDGE ( 'NONE', *, *, #107, .F. ) ;
#107 = EDGE_CURVE ( 'NONE', #76, #139, #452, .T. ) ;
#108 = EDGE_LOOP ( 'NONE', ( #179, #106, #165, #164 ) ) ;
#109 = ORIENTED_EDGE ( 'NONE', *, *, #47, .F. ) ;
#110 = ORIENTED_EDGE ( 'NONE', *, *, #111, .F. ) ;
#111 = EDGE_CURVE ( 'NONE', #123, #38, #448, .T. ) ;
#112 = ORIENTED_EDGE ( 'NONE', *, *, #122, .T. ) ;
#113 = ORIENTED_EDGE ( 'NONE', *, *, #75, .T. ) ;
#114 = ORIENTED_EDGE ( 'NONE', *, *, #37, .F. ) ;
#115 = VERTEX_POINT ( 'NONE', #444 ) ;
#116 = EDGE_LOOP ( 'NONE', ( #40, #43, #46, #140 ) ) ;
#117 = ORIENTED_EDGE ( 'NONE', *, *, #250, .T. ) ;
#118 = EDGE_LOOP ( 'NONE', ( #180, #182 ) ) ;
#119 = ORIENTED_EDGE ( 'NONE', *, *, #30, .F. ) ;
#120 = ORIENTED_EDGE ( 'NONE', *, *, #163, .T. ) ;
#121 = ORIENTED_EDGE ( 'NONE', *, *, #149, .T. ) ;
#122 = EDGE_CURVE ( 'NONE', #123, #143, #440, .T. ) ;
#123 = VERTEX_POINT ( 'NONE', #436 ) ;
#124 = EDGE_CURVE ( 'NONE', #4, #58, #463, .T. ) ;
#125 = ORIENTED_EDGE ( 'NONE', *, *, #126, .F. ) ;
#126 = EDGE_CURVE ( 'NONE', #76, #123, #464, .T. ) ;
#127 = ORIENTED_EDGE ( 'NONE', *, *, #107, .T. ) ;
#128 = EDGE_LOOP ( 'NONE', ( #136, #109, #110, #112 ) ) ;
#129 = EDGE_CURVE ( 'NONE', #5, #15, #288, .T. ) ;
#130 = ORIENTED_EDGE ( 'NONE', *, *, #162, .T. ) ;
#131 = ORIENTED_EDGE ( 'NONE', *, *, #86, .T. ) ;
#132 = ADVANCED_FACE ( 'NONE', ( #560, #561, #490, #489, #486, #485, #535, #534 ), #523, .T. ) ;
#133 = EDGE_LOOP ( 'NONE', ( #134, #89 ) ) ;
#134 = ORIENTED_EDGE ( 'NONE', *, *, #156, .T. ) ;
#135 = EDGE_LOOP ( 'NONE', ( #161, #119 ) ) ;
#136 = ORIENTED_EDGE ( 'NONE', *, *, #137, .T. ) ;
#137 = EDGE_CURVE ( 'NONE', #143, #48, #537, .T. ) ;
#138 = EDGE_CURVE ( 'NONE', #38, #115, #572, .T. ) ;
#139 = VERTEX_POINT ( 'NONE', #564 ) ;
#140 = ORIENTED_EDGE ( 'NONE', *, *, #37, .T. ) ;
#141 = ADVANCED_FACE ( 'NONE', ( #563 ), #562, .F. ) ;
#142 = EDGE_CURVE ( 'NONE', #139, #143, #517, .T. ) ;
#143 = VERTEX_POINT ( 'NONE', #581 ) ;
#144 = ORIENTED_EDGE ( 'NONE', *, *, #124, .T. ) ;
#145 = ADVANCED_FACE ( 'NONE', ( #580 ), #578, .F. ) ;
#146 = EDGE_LOOP ( 'NONE', ( #147, #297, #271, #281 ) ) ;
#147 = ORIENTED_EDGE ( 'NONE', *, *, #49, .F. ) ;
#148 = EDGE_CURVE ( 'NONE', #1, #56, #527, .T. ) ;
#149 = EDGE_CURVE ( 'NONE', #8, #14, #518, .T. ) ;
#150 = ORIENTED_EDGE ( 'NONE', *, *, #2, .T. ) ;
#151 = EDGE_LOOP ( 'NONE', ( #183, #187 ) ) ;
#152 = ORIENTED_EDGE ( 'NONE', *, *, #17, .T. ) ;
#153 = ORIENTED_EDGE ( 'NONE', *, *, #138, .F. ) ;
#154 = EDGE_LOOP ( 'NONE', ( #155, #216 ) ) ;
#155 = ORIENTED_EDGE ( 'NONE', *, *, #105, .T. ) ;
#156 = EDGE_CURVE ( 'NONE', #257, #256, #532, .T. ) ;
#157 = EDGE_LOOP ( 'NONE', ( #90, #117 ) ) ;
#158 = ORIENTED_EDGE ( 'NONE', *, *, #159, .T. ) ;
#159 = EDGE_CURVE ( 'NONE', #19, #18, #533, .T. ) ;
#160 = EDGE_LOOP ( 'NONE', ( #121, #150 ) ) ;
#161 = ORIENTED_EDGE ( 'NONE', *, *, #185, .F. ) ;
#162 = EDGE_CURVE ( 'NONE', #115, #45, #546, .T. ) ;
#163 = EDGE_CURVE ( 'NONE', #170, #76, #576, .T. ) ;
#164 = ORIENTED_EDGE ( 'NONE', *, *, #84, .T. ) ;
#165 = ORIENTED_EDGE ( 'NONE', *, *, #163, .F. ) ;
#166 = ORIENTED_EDGE ( 'NONE', *, *, #44, .T. ) ;
#167 = ADVANCED_FACE ( 'NONE', ( #559 ), #558, .F. ) ;
#168 = ADVANCED_FACE ( 'NONE', ( #496 ), #495, .F. ) ;
#169 = VERTEX_POINT ( 'NONE', #543 ) ;
#170 = VERTEX_POINT ( 'NONE', #542 ) ;
#171 = EDGE_LOOP ( 'NONE', ( #113, #83, #85, #166 ) ) ;
#172 = EDGE_CURVE ( 'NONE', #169, #139, #541, .T. ) ;
#173 = ORIENTED_EDGE ( 'NONE', *, *, #47, .T. ) ;
#174 = ADVANCED_FACE ( 'NONE', ( #507 ), #506, .F. ) ;
#175 = ADVANCED_FACE ( 'NONE', ( #501, #500, #499, #498, #497, #469, #588, #650 ), #582, .F. ) ;
#176 = EDGE_LOOP ( 'NONE', ( #177, #77 ) ) ;
#177 = ORIENTED_EDGE ( 'NONE', *, *, #178, .F. ) ;
#178 = EDGE_CURVE ( 'NONE', #227, #252, #641, .T. ) ;
#179 = ORIENTED_EDGE ( 'NONE', *, *, #172, .T. ) ;
#180 = ORIENTED_EDGE ( 'NONE', *, *, #181, .T. ) ;
#181 = EDGE_CURVE ( 'NONE', #195, #194, #634, .T. ) ;
#182 = ORIENTED_EDGE ( 'NONE', *, *, #193, .T. ) ;
#183 = ORIENTED_EDGE ( 'NONE', *, *, #184, .T. ) ;
#184 = EDGE_CURVE ( 'NONE', #53, #52, #633, .T. ) ;
#185 = EDGE_CURVE ( 'NONE', #31, #28, #628, .T. ) ;
#186 = ORIENTED_EDGE ( 'NONE', *, *, #138, .T. ) ;
#187 = ORIENTED_EDGE ( 'NONE', *, *, #60, .T. ) ;
#188 = EDGE_LOOP ( 'NONE', ( #232, #233, #213, #144 ) ) ;
#189 = ORIENTED_EDGE ( 'NONE', *, *, #105, .F. ) ;
#190 = ORIENTED_EDGE ( 'NONE', *, *, #191, .T. ) ;
#191 = EDGE_CURVE ( 'NONE', #194, #208, #629, .T. ) ;
#192 = ORIENTED_EDGE ( 'NONE', *, *, #193, .F. ) ;
#193 = EDGE_CURVE ( 'NONE', #194, #195, #642, .T. ) ;
#194 = VERTEX_POINT ( 'NONE', #615 ) ;
#195 = VERTEX_POINT ( 'NONE', #614 ) ;
#196 = EDGE_CURVE ( 'NONE', #252, #227, #648, .T. ) ;
#197 = ORIENTED_EDGE ( 'NONE', *, *, #255, .F. ) ;
#198 = ADVANCED_FACE ( 'NONE', ( #649 ), #586, .F. ) ;
#199 = EDGE_LOOP ( 'NONE', ( #197, #200, #226, #243 ) ) ;
#200 = ORIENTED_EDGE ( 'NONE', *, *, #201, .T. ) ;
#201 = EDGE_CURVE ( 'NONE', #256, #252, #587, .T. ) ;
#202 = ADVANCED_FACE ( 'NONE', ( #610 ), #609, .F. ) ;
#203 = EDGE_LOOP ( 'NONE', ( #204, #33, #9, #16 ) ) ;
#204 = ORIENTED_EDGE ( 'NONE', *, *, #17, .F. ) ;
#205 = MANIFOLD_SOLID_BREP ( 'NONE', #294 ) ;
#206 = VERTEX_POINT ( 'NONE', #694 ) ;
#207 = ORIENTED_EDGE ( 'NONE', *, *, #253, .T. ) ;
#208 = VERTEX_POINT ( 'NONE', #693 ) ;
#209 = ORIENTED_EDGE ( 'NONE', *, *, #210, .T. ) ;
#210 = EDGE_CURVE ( 'NONE', #208, #258, #692, .T. ) ;
#211 = EDGE_CURVE ( 'NONE', #206, #241, #659, .T. ) ;
#212 = ADVANCED_FACE ( 'NONE', ( #655 ), #690, .F. ) ;
#213 = ORIENTED_EDGE ( 'NONE', *, *, #6, .T. ) ;
#214 = EDGE_LOOP ( 'NONE', ( #228, #229, #218, #219 ) ) ;
#215 = ORIENTED_EDGE ( 'NONE', *, *, #142, .F. ) ;
#216 = ORIENTED_EDGE ( 'NONE', *, *, #23, .T. ) ;
#217 = ORIENTED_EDGE ( 'NONE', *, *, #172, .F. ) ;
#218 = ORIENTED_EDGE ( 'NONE', *, *, #62, .T. ) ;
#219 = ORIENTED_EDGE ( 'NONE', *, *, #148, .T. ) ;
#220 = ORIENTED_EDGE ( 'NONE', *, *, #137, .F. ) ;
#221 = EDGE_LOOP ( 'NONE', ( #222, #189, #236, #237 ) ) ;
#222 = ORIENTED_EDGE ( 'NONE', *, *, #27, .F. ) ;
#223 = ADVANCED_FACE ( 'NONE', ( #685 ), #684, .F. ) ;
#224 = ADVANCED_FACE ( 'NONE', ( #683 ), #679, .F. ) ;
#225 = EDGE_LOOP ( 'NONE', ( #192, #190, #209, #259 ) ) ;
#226 = ORIENTED_EDGE ( 'NONE', *, *, #196, .T. ) ;
#227 = VERTEX_POINT ( 'NONE', #674 ) ;
#228 = ORIENTED_EDGE ( 'NONE', *, *, #55, .F. ) ;
#229 = ORIENTED_EDGE ( 'NONE', *, *, #184, .F. ) ;
#230 = ORIENTED_EDGE ( 'NONE', *, *, #75, .F. ) ;
#231 = ORIENTED_EDGE ( 'NONE', *, *, #41, .F. ) ;
#232 = ORIENTED_EDGE ( 'NONE', *, *, #3, .F. ) ;
#233 = ORIENTED_EDGE ( 'NONE', *, *, #149, .F. ) ;
#234 = EDGE_LOOP ( 'NONE', ( #238, #220, #215, #217, #230, #231 ) ) ;
#235 = ADVANCED_FACE ( 'NONE', ( #673 ), #672, .F. ) ;
#236 = ORIENTED_EDGE ( 'NONE', *, *, #101, .T. ) ;
#237 = ORIENTED_EDGE ( 'NONE', *, *, #185, .T. ) ;
#238 = ORIENTED_EDGE ( 'NONE', *, *, #82, .F. ) ;
#239 = ORIENTED_EDGE ( 'NONE', *, *, #253, .F. ) ;
#240 = ORIENTED_EDGE ( 'NONE', *, *, #96, .F. ) ;
#241 = VERTEX_POINT ( 'NONE', #667 ) ;
#242 = ORIENTED_EDGE ( 'NONE', *, *, #211, .F. ) ;
#243 = ORIENTED_EDGE ( 'NONE', *, *, #244, .F. ) ;
#244 = EDGE_CURVE ( 'NONE', #257, #227, #666, .T. ) ;
#245 = EDGE_LOOP ( 'NONE', ( #247, #207, #248, #242 ) ) ;
#246 = ADVANCED_FACE ( 'NONE', ( #746 ), #771, .F. ) ;
#247 = ORIENTED_EDGE ( 'NONE', *, *, #250, .F. ) ;
#248 = ORIENTED_EDGE ( 'NONE', *, *, #249, .T. ) ;
#249 = EDGE_CURVE ( 'NONE', #254, #241, #748, .T. ) ;
#250 = EDGE_CURVE ( 'NONE', #251, #206, #747, .T. ) ;
#251 = VERTEX_POINT ( 'NONE', #718 ) ;
#252 = VERTEX_POINT ( 'NONE', #717 ) ;
#253 = EDGE_CURVE ( 'NONE', #251, #254, #756, .T. ) ;
#254 = VERTEX_POINT ( 'NONE', #713 ) ;
#255 = EDGE_CURVE ( 'NONE', #256, #257, #760, .T. ) ;
#256 = VERTEX_POINT ( 'NONE', #762 ) ;
#257 = VERTEX_POINT ( 'NONE', #761 ) ;
#258 = VERTEX_POINT ( 'NONE', #721 ) ;
#259 = ORIENTED_EDGE ( 'NONE', *, *, #260, .F. ) ;
#260 = EDGE_CURVE ( 'NONE', #195, #258, #720, .T. ) ;
#261 = ORIENTED_EDGE ( 'NONE', *, *, #211, .T. ) ;
#262 = ADVANCED_FACE ( 'NONE', ( #707 ), #706, .F. ) ;
#263 = CIRCLE ( 'NONE', #307, 3.099999999999984500 ) ;
#264 = CARTESIAN_POINT ( 'NONE',  ( 15.10000000000000000, 12.00000000000000000, 8.673617379884035500E-016 ) ) ;
#265 = DIRECTION ( 'NONE',  ( 0.0000000000000000000, 0.0000000000000000000, 1.000000000000000000 ) ) ;
#266 = VECTOR ( 'NONE', #265, 1000.000000000000000 ) ;
#267 = CARTESIAN_POINT ( 'NONE',  ( 15.09999999999999400, 12.00000000000000000, 5.000000000000000000 ) ) ;
#268 = LINE ( 'NONE', #267, #266 ) ;
#269 = EDGE_LOOP ( 'NONE', ( #272, #301, #282, #302 ) ) ;
#270 = CARTESIAN_POINT ( 'NONE',  ( 105.0999999999999800, 12.00000000000000000, 5.000000000000000900 ) ) ;
#271 = ORIENTED_EDGE ( 'NONE', *, *, #50, .T. ) ;
#272 = ORIENTED_EDGE ( 'NONE', *, *, #191, .F. ) ;
#273 = ADVANCED_FACE ( 'NONE', ( #752 ), #733, .F. ) ;
#274 = ORIENTED_EDGE ( 'NONE', *, *, #80, .T. ) ;
#275 = CARTESIAN_POINT ( 'NONE',  ( 45.09999999999998700, 12.00000000000000000, 5.000000000000000900 ) ) ;
#276 = CARTESIAN_POINT ( 'NONE',  ( 15.09999999999998900, 12.00000000000000000, 5.000000000000000900 ) ) ;
#277 = DIRECTION ( 'NONE',  ( 0.0000000000000000000, 0.0000000000000000000, 1.000000000000000000 ) ) ;
#278 = VECTOR ( 'NONE', #277, 1000.000000000000000 ) ;
#279 = CARTESIAN_POINT ( 'NONE',  ( 8.900000000000007500, 12.00000000000000000, 5.000000000000000000 ) ) ;
#280 = ORIENTED_EDGE ( 'NONE', *, *, #244, .T. ) ;
#281 = ORIENTED_EDGE ( 'NONE', *, *, #129, .T. ) ;
#282 = ORIENTED_EDGE ( 'NONE', *, *, #260, .T. ) ;
#283 = ORIENTED_EDGE ( 'NONE', *, *, #178, .T. ) ;
#284 = DIRECTION ( 'NONE',  ( 0.0000000000000000000, 0.0000000000000000000, 1.000000000000000000 ) ) ;
#285 = CARTESIAN_POINT ( 'NONE',  ( 42.00000000000000000, 12.00000000000000000, 8.673617379884035500E-016 ) ) ;
#286 = AXIS2_PLACEMENT_3D ( 'NONE', #285, #284, #354 ) ;
#287 = CIRCLE ( 'NONE', #286, 3.099999999999998800 ) ;
#288 = CIRCLE ( 'NONE', #322, 3.099999999999984500 ) ;
#289 = CARTESIAN_POINT ( 'NONE',  ( 38.90000000000002000, 12.00000000000000000, 5.000000000000000900 ) ) ;
#290 = CARTESIAN_POINT ( 'NONE',  ( 8.900000000000002100, 12.00000000000000000, 8.673617379884035500E-016 ) ) ;
#291 = DIRECTION ( 'NONE',  ( 1.000000000000000000, 0.0000000000000000000, 0.0000000000000000000 ) ) ;
#292 = DIRECTION ( 'NONE',  ( 0.0000000000000000000, 0.0000000000000000000, 1.000000000000000000 ) ) ;
#293 = AXIS2_PLACEMENT_3D ( 'NONE', #308, #292, #291 ) ;
#294 = CLOSED_SHELL ( 'NONE', ( #198, #246, #212, #202, #64, #51, #21, #100, #174, #168, #167, #66, #141, #175, #132, #223, #224, #235, #145, #298, #273, #262 ) ) ;
#295 = ORIENTED_EDGE ( 'NONE', *, *, #201, .F. ) ;
#296 = ORIENTED_EDGE ( 'NONE', *, *, #156, .F. ) ;
#297 = ORIENTED_EDGE ( 'NONE', *, *, #159, .F. ) ;
#298 = ADVANCED_FACE ( 'NONE', ( #703 ), #702, .F. ) ;
#299 = EDGE_LOOP ( 'NONE', ( #295, #296, #280, #283 ) ) ;
#300 = EDGE_LOOP ( 'NONE', ( #239, #240, #261, #274 ) ) ;
#301 = ORIENTED_EDGE ( 'NONE', *, *, #181, .F. ) ;
#302 = ORIENTED_EDGE ( 'NONE', *, *, #71, .T. ) ;
#303 = CIRCLE ( 'NONE', #293, 3.099999999999988100 ) ;
#304 = DIRECTION ( 'NONE',  ( 1.000000000000000000, 0.0000000000000000000, 0.0000000000000000000 ) ) ;
#305 = DIRECTION ( 'NONE',  ( 0.0000000000000000000, 0.0000000000000000000, 1.000000000000000000 ) ) ;
#306 = CARTESIAN_POINT ( 'NONE',  ( 42.00000000000000000, 12.00000000000000000, 5.000000000000000900 ) ) ;
#307 = AXIS2_PLACEMENT_3D ( 'NONE', #306, #305, #304 ) ;
#308 = CARTESIAN_POINT ( 'NONE',  ( 12.00000000000000000, 12.00000000000000000, 5.000000000000000900 ) ) ;
#309 = LINE ( 'NONE', #279, #278 ) ;
#310 = DIRECTION ( 'NONE',  ( 1.000000000000000000, 0.0000000000000000000, 0.0000000000000000000 ) ) ;
#311 = DIRECTION ( 'NONE',  ( 0.0000000000000000000, 0.0000000000000000000, 1.000000000000000000 ) ) ;
#312 = CARTESIAN_POINT ( 'NONE',  ( 12.00000000000000000, 12.00000000000000000, 8.673617379884035500E-016 ) ) ;
#313 = AXIS2_PLACEMENT_3D ( 'NONE', #312, #311, #310 ) ;
#314 = CIRCLE ( 'NONE', #313, 3.099999999999998800 ) ;
#315 = FACE_OUTER_BOUND ( 'NONE', #63, .T. ) ;
#316 = CIRCLE ( 'NONE', #346, 3.099999999999991700 ) ;
#317 = CARTESIAN_POINT ( 'NONE',  ( 135.0999999999999900, 12.00000000000000000, 8.673617379884035500E-016 ) ) ;
#318 = CARTESIAN_POINT ( 'NONE',  ( 128.9000000000000100, 12.00000000000000000, 8.673617379884035500E-016 ) ) ;
#319 = DIRECTION ( 'NONE',  ( 1.000000000000000000, 0.0000000000000000000, 0.0000000000000000000 ) ) ;
#320 = DIRECTION ( 'NONE',  ( 0.0000000000000000000, 0.0000000000000000000, 1.000000000000000000 ) ) ;
#321 = DIRECTION ( 'NONE',  ( 1.000000000000000000, 0.0000000000000000000, 0.0000000000000000000 ) ) ;
#322 = AXIS2_PLACEMENT_3D ( 'NONE', #388, #473, #528 ) ;
#323 = FACE_OUTER_BOUND ( 'NONE', #7, .T. ) ;
#324 = DIRECTION ( 'NONE',  ( 0.0000000000000000000, 0.0000000000000000000, 1.000000000000000000 ) ) ;
#325 = VECTOR ( 'NONE', #324, 1000.000000000000000 ) ;
#326 = CARTESIAN_POINT ( 'NONE',  ( 45.09999999999999400, 12.00000000000000000, 5.000000000000000000 ) ) ;
#327 = LINE ( 'NONE', #326, #325 ) ;
#328 = DIRECTION ( 'NONE',  ( 0.0000000000000000000, 0.0000000000000000000, 1.000000000000000000 ) ) ;
#329 = VECTOR ( 'NONE', #328, 1000.000000000000000 ) ;
#330 = CARTESIAN_POINT ( 'NONE',  ( 38.90000000000001300, 12.00000000000000000, 5.000000000000000000 ) ) ;
#331 = LINE ( 'NONE', #330, #329 ) ;
#332 = CARTESIAN_POINT ( 'NONE',  ( 0.0000000000000000000, 24.00000000000000000, 0.0000000000000000000 ) ) ;
#333 = DIRECTION ( 'NONE',  ( 0.0000000000000000000, 0.0000000000000000000, -1.000000000000000000 ) ) ;
#334 = DIRECTION ( 'NONE',  ( 0.0000000000000000000, 0.0000000000000000000, 1.000000000000000000 ) ) ;
#335 = CARTESIAN_POINT ( 'NONE',  ( 132.0000000000000000, 12.00000000000000000, 5.000000000000000900 ) ) ;
#336 = AXIS2_PLACEMENT_3D ( 'NONE', #335, #334, #376 ) ;
#337 = CIRCLE ( 'NONE', #336, 3.099999999999991700 ) ;
#338 = DIRECTION ( 'NONE',  ( 0.0000000000000000000, 0.0000000000000000000, 1.000000000000000000 ) ) ;
#339 = CARTESIAN_POINT ( 'NONE',  ( 144.0000000000000000, 0.0000000000000000000, 5.000000000000000000 ) ) ;
#340 = LINE ( 'NONE', #339, #368 ) ;
#341 = CARTESIAN_POINT ( 'NONE',  ( 144.0000000000000000, 0.0000000000000000000, 0.0000000000000000000 ) ) ;
#342 = DIRECTION ( 'NONE',  ( 1.000000000000000000, 0.0000000000000000000, 0.0000000000000000000 ) ) ;
#343 = VECTOR ( 'NONE', #342, 1000.000000000000000 ) ;
#344 = CARTESIAN_POINT ( 'NONE',  ( 0.0000000000000000000, 0.0000000000000000000, 0.0000000000000000000 ) ) ;
#345 = CARTESIAN_POINT ( 'NONE',  ( 132.0000000000000000, 12.00000000000000000, 8.673617379884035500E-016 ) ) ;
#346 = AXIS2_PLACEMENT_3D ( 'NONE', #345, #320, #319 ) ;
#347 = LINE ( 'NONE', #344, #343 ) ;
#348 = CARTESIAN_POINT ( 'NONE',  ( 0.0000000000000000000, 0.0000000000000000000, 0.0000000000000000000 ) ) ;
#349 = CARTESIAN_POINT ( 'NONE',  ( 0.0000000000000000000, 24.00000000000000000, 5.000000000000000000 ) ) ;
#350 = CARTESIAN_POINT ( 'NONE',  ( 38.90000000000000600, 12.00000000000000000, 8.673617379884035500E-016 ) ) ;
#351 = CARTESIAN_POINT ( 'NONE',  ( 132.0000000000000000, 12.00000000000000000, 5.000000000000000000 ) ) ;
#352 = AXIS2_PLACEMENT_3D ( 'NONE', #351, #338, #321 ) ;
#353 = CYLINDRICAL_SURFACE ( 'NONE', #352, 3.099999999999991700 ) ;
#354 = DIRECTION ( 'NONE',  ( 1.000000000000000000, 0.0000000000000000000, 0.0000000000000000000 ) ) ;
#355 = DIRECTION ( 'NONE',  ( 0.0000000000000000000, 0.0000000000000000000, 1.000000000000000000 ) ) ;
#356 = VECTOR ( 'NONE', #355, 1000.000000000000000 ) ;
#357 = CARTESIAN_POINT ( 'NONE',  ( 128.9000000000000100, 12.00000000000000000, 5.000000000000000000 ) ) ;
#358 = LINE ( 'NONE', #357, #356 ) ;
#359 = DIRECTION ( 'NONE',  ( 1.000000000000000000, 0.0000000000000000000, 0.0000000000000000000 ) ) ;
#360 = DIRECTION ( 'NONE',  ( 0.0000000000000000000, 0.0000000000000000000, 1.000000000000000000 ) ) ;
#361 = CARTESIAN_POINT ( 'NONE',  ( 102.0000000000000000, 12.00000000000000000, 5.000000000000000900 ) ) ;
#362 = AXIS2_PLACEMENT_3D ( 'NONE', #361, #360, #359 ) ;
#363 = VECTOR ( 'NONE', #333, 1000.000000000000000 ) ;
#364 = CARTESIAN_POINT ( 'NONE',  ( 0.0000000000000000000, 24.00000000000000000, 5.000000000000000000 ) ) ;
#365 = LINE ( 'NONE', #364, #363 ) ;
#366 = CARTESIAN_POINT ( 'NONE',  ( 144.0000000000000000, 0.0000000000000000000, 5.000000000000000000 ) ) ;
#367 = DIRECTION ( 'NONE',  ( 0.0000000000000000000, 0.0000000000000000000, -1.000000000000000000 ) ) ;
#368 = VECTOR ( 'NONE', #367, 1000.000000000000000 ) ;
#369 = CARTESIAN_POINT ( 'NONE',  ( 128.9000000000000100, 12.00000000000000000, 5.000000000000000900 ) ) ;
#370 = DIRECTION ( 'NONE',  ( 0.0000000000000000000, 0.0000000000000000000, -1.000000000000000000 ) ) ;
#371 = VECTOR ( 'NONE', #370, 1000.000000000000000 ) ;
#372 = CARTESIAN_POINT ( 'NONE',  ( 0.0000000000000000000, 0.0000000000000000000, 5.000000000000000000 ) ) ;
#373 = LINE ( 'NONE', #372, #371 ) ;
#374 = CIRCLE ( 'NONE', #362, 3.099999999999991700 ) ;
#375 = CARTESIAN_POINT ( 'NONE',  ( 135.0999999999999900, 12.00000000000000000, 5.000000000000000900 ) ) ;
#376 = DIRECTION ( 'NONE',  ( 1.000000000000000000, 0.0000000000000000000, 0.0000000000000000000 ) ) ;
#377 = CARTESIAN_POINT ( 'NONE',  ( 45.10000000000000100, 12.00000000000000000, 8.673617379884035500E-016 ) ) ;
#378 = CARTESIAN_POINT ( 'NONE',  ( 60.00000000000000000, 84.00000000000000000, 5.000000000000000000 ) ) ;
#379 = AXIS2_PLACEMENT_3D ( 'NONE', #378, #419, #418 ) ;
#380 = FACE_OUTER_BOUND ( 'NONE', #67, .T. ) ;
#381 = DIRECTION ( 'NONE',  ( 1.000000000000000000, 0.0000000000000000000, 0.0000000000000000000 ) ) ;
#382 = DIRECTION ( 'NONE',  ( 0.0000000000000000000, 0.0000000000000000000, 1.000000000000000000 ) ) ;
#383 = CARTESIAN_POINT ( 'NONE',  ( 12.00000000000000000, 12.00000000000000000, 5.000000000000000000 ) ) ;
#384 = AXIS2_PLACEMENT_3D ( 'NONE', #383, #382, #381 ) ;
#385 = DIRECTION ( 'NONE',  ( 0.0000000000000000000, 0.0000000000000000000, -1.000000000000000000 ) ) ;
#386 = VECTOR ( 'NONE', #385, 1000.000000000000000 ) ;
#387 = CARTESIAN_POINT ( 'NONE',  ( 144.0000000000000000, 24.00000000000000000, 5.000000000000000000 ) ) ;
#388 = CARTESIAN_POINT ( 'NONE',  ( 42.00000000000000000, 12.00000000000000000, 5.000000000000000900 ) ) ;
#389 = LINE ( 'NONE', #387, #386 ) ;
#390 = DIRECTION ( 'NONE',  ( 0.0000000000000000000, -1.000000000000000000, 0.0000000000000000000 ) ) ;
#391 = VECTOR ( 'NONE', #390, 1000.000000000000000 ) ;
#392 = CARTESIAN_POINT ( 'NONE',  ( 0.0000000000000000000, 0.0000000000000000000, 0.0000000000000000000 ) ) ;
#393 = LINE ( 'NONE', #392, #391 ) ;
#394 = DIRECTION ( 'NONE',  ( 1.000000000000000000, 0.0000000000000000000, 0.0000000000000000000 ) ) ;
#395 = DIRECTION ( 'NONE',  ( 0.0000000000000000000, 0.0000000000000000000, 1.000000000000000000 ) ) ;
#396 = CARTESIAN_POINT ( 'NONE',  ( 72.00000000000000000, 42.00000000000000000, 5.000000000000000900 ) ) ;
#397 = AXIS2_PLACEMENT_3D ( 'NONE', #396, #395, #394 ) ;
#398 = CIRCLE ( 'NONE', #397, 3.099999999999991700 ) ;
#399 = CARTESIAN_POINT ( 'NONE',  ( 83.99999999999998600, 84.00000000000000000, 5.000000000000000000 ) ) ;
#400 = DIRECTION ( 'NONE',  ( 0.0000000000000000000, 1.000000000000000000, 0.0000000000000000000 ) ) ;
#401 = VECTOR ( 'NONE', #400, 1000.000000000000000 ) ;
#402 = CARTESIAN_POINT ( 'NONE',  ( 144.0000000000000000, 0.0000000000000000000, 0.0000000000000000000 ) ) ;
#403 = LINE ( 'NONE', #402, #401 ) ;
#404 = CARTESIAN_POINT ( 'NONE',  ( 105.0999999999999900, 12.00000000000000000, 5.000000000000000000 ) ) ;
#405 = DIRECTION ( 'NONE',  ( 1.000000000000000000, 0.0000000000000000000, 0.0000000000000000000 ) ) ;
#406 = DIRECTION ( 'NONE',  ( 0.0000000000000000000, 0.0000000000000000000, 1.000000000000000000 ) ) ;
#407 = CARTESIAN_POINT ( 'NONE',  ( 102.0000000000000000, 12.00000000000000000, 8.673617379884035500E-016 ) ) ;
#408 = CARTESIAN_POINT ( 'NONE',  ( 102.0000000000000000, 12.00000000000000000, 5.000000000000000000 ) ) ;
#409 = CARTESIAN_POINT ( 'NONE',  ( 105.0999999999999900, 12.00000000000000000, 8.673617379884035500E-016 ) ) ;
#410 = AXIS2_PLACEMENT_3D ( 'NONE', #407, #406, #405 ) ;
#411 = CIRCLE ( 'NONE', #410, 3.100000000000005400 ) ;
#412 = LINE ( 'NONE', #404, #434 ) ;
#413 = DIRECTION ( 'NONE',  ( 1.000000000000000000, 0.0000000000000000000, 0.0000000000000000000 ) ) ;
#414 = DIRECTION ( 'NONE',  ( 0.0000000000000000000, 0.0000000000000000000, 1.000000000000000000 ) ) ;
#415 = CARTESIAN_POINT ( 'NONE',  ( 72.00000000000000000, 12.00000000000000000, 5.000000000000000900 ) ) ;
#416 = AXIS2_PLACEMENT_3D ( 'NONE', #415, #414, #413 ) ;
#417 = CIRCLE ( 'NONE', #416, 3.099999999999991700 ) ;
#418 = DIRECTION ( 'NONE',  ( 0.0000000000000000000, 0.0000000000000000000, -1.000000000000000000 ) ) ;
#419 = DIRECTION ( 'NONE',  ( 0.0000000000000000000, -1.000000000000000000, 0.0000000000000000000 ) ) ;
#420 = AXIS2_PLACEMENT_3D ( 'NONE', #408, #421, #435 ) ;
#421 = DIRECTION ( 'NONE',  ( 0.0000000000000000000, 0.0000000000000000000, 1.000000000000000000 ) ) ;
#422 = CARTESIAN_POINT ( 'NONE',  ( 98.89999999999999100, 12.00000000000000000, 8.673617379884035500E-016 ) ) ;
#423 = VECTOR ( 'NONE', #428, 1000.000000000000000 ) ;
#424 = CARTESIAN_POINT ( 'NONE',  ( 98.89999999999999100, 12.00000000000000000, 5.000000000000000000 ) ) ;
#425 = LINE ( 'NONE', #424, #423 ) ;
#426 = CARTESIAN_POINT ( 'NONE',  ( 8.900000000000012800, 12.00000000000000000, 5.000000000000000900 ) ) ;
#427 = CARTESIAN_POINT ( 'NONE',  ( 98.90000000000000600, 12.00000000000000000, 5.000000000000000900 ) ) ;
#428 = DIRECTION ( 'NONE',  ( 0.0000000000000000000, 0.0000000000000000000, 1.000000000000000000 ) ) ;
#429 = CYLINDRICAL_SURFACE ( 'NONE', #420, 3.100000000000005400 ) ;
#430 = PLANE ( 'NONE',  #379 ) ;
#431 = CYLINDRICAL_SURFACE ( 'NONE', #384, 3.099999999999993400 ) ;
#432 = FACE_OUTER_BOUND ( 'NONE', #65, .T. ) ;
#433 = DIRECTION ( 'NONE',  ( 0.0000000000000000000, 0.0000000000000000000, 1.000000000000000000 ) ) ;
#434 = VECTOR ( 'NONE', #433, 1000.000000000000000 ) ;
#435 = DIRECTION ( 'NONE',  ( 1.000000000000000000, 0.0000000000000000000, 0.0000000000000000000 ) ) ;
#436 = CARTESIAN_POINT ( 'NONE',  ( 60.00000000000000000, 84.00000000000000000, 5.000000000000000000 ) ) ;
#437 = DIRECTION ( 'NONE',  ( 0.0000000000000000000, 0.0000000000000000000, -1.000000000000000000 ) ) ;
#438 = VECTOR ( 'NONE', #437, 1000.000000000000000 ) ;
#439 = CARTESIAN_POINT ( 'NONE',  ( 60.00000000000000000, 84.00000000000000000, 5.000000000000000000 ) ) ;
#440 = LINE ( 'NONE', #439, #438 ) ;
#441 = DIRECTION ( 'NONE',  ( 0.0000000000000000000, 1.000000000000000000, 0.0000000000000000000 ) ) ;
#442 = VECTOR ( 'NONE', #441, 1000.000000000000000 ) ;
#443 = CARTESIAN_POINT ( 'NONE',  ( 144.0000000000000000, 0.0000000000000000000, 5.000000000000000000 ) ) ;
#444 = CARTESIAN_POINT ( 'NONE',  ( 0.0000000000000000000, 0.0000000000000000000, 5.000000000000000000 ) ) ;
#445 = DIRECTION ( 'NONE',  ( -0.7071067811865474600, -0.7071067811865474600, 0.0000000000000000000 ) ) ;
#446 = VECTOR ( 'NONE', #445, 1000.000000000000100 ) ;
#447 = CARTESIAN_POINT ( 'NONE',  ( 0.0000000000000000000, 24.00000000000000000, 5.000000000000000000 ) ) ;
#448 = LINE ( 'NONE', #447, #446 ) ;
#449 = DIRECTION ( 'NONE',  ( 0.0000000000000000000, 0.0000000000000000000, -1.000000000000000000 ) ) ;
#450 = VECTOR ( 'NONE', #449, 1000.000000000000000 ) ;
#451 = CARTESIAN_POINT ( 'NONE',  ( 83.99999999999998600, 84.00000000000000000, 5.000000000000000000 ) ) ;
#452 = LINE ( 'NONE', #451, #450 ) ;
#453 = CARTESIAN_POINT ( 'NONE',  ( 132.0000000000000000, 12.00000000000000000, 8.673617379884035500E-016 ) ) ;
#454 = DIRECTION ( 'NONE',  ( 0.0000000000000000000, 0.0000000000000000000, 1.000000000000000000 ) ) ;
#455 = VECTOR ( 'NONE', #454, 1000.000000000000000 ) ;
#456 = CARTESIAN_POINT ( 'NONE',  ( 135.0999999999999900, 12.00000000000000000, 5.000000000000000000 ) ) ;
#457 = PLANE ( 'NONE',  #484 ) ;
#458 = DIRECTION ( 'NONE',  ( 1.000000000000000000, 0.0000000000000000000, 0.0000000000000000000 ) ) ;
#459 = DIRECTION ( 'NONE',  ( 0.0000000000000000000, 0.0000000000000000000, 1.000000000000000000 ) ) ;
#460 = DIRECTION ( 'NONE',  ( 0.0000000000000000000, 0.0000000000000000000, 1.000000000000000000 ) ) ;
#461 = CARTESIAN_POINT ( 'NONE',  ( 12.00000000000000000, 12.00000000000000000, 5.000000000000000900 ) ) ;
#462 = AXIS2_PLACEMENT_3D ( 'NONE', #461, #460, #474 ) ;
#463 = CIRCLE ( 'NONE', #462, 3.099999999999988100 ) ;
#464 = LINE ( 'NONE', #472, #471 ) ;
#465 = LINE ( 'NONE', #443, #442 ) ;
#466 = CARTESIAN_POINT ( 'NONE',  ( 72.00000000000000000, 42.00000000000000000, 8.673617379884035500E-016 ) ) ;
#467 = AXIS2_PLACEMENT_3D ( 'NONE', #466, #459, #458 ) ;
#468 = FACE_OUTER_BOUND ( 'NONE', #36, .T. ) ;
#469 = FACE_BOUND ( 'NONE', #103, .T. ) ;
#470 = DIRECTION ( 'NONE',  ( -1.000000000000000000, 0.0000000000000000000, 0.0000000000000000000 ) ) ;
#471 = VECTOR ( 'NONE', #470, 1000.000000000000000 ) ;
#472 = CARTESIAN_POINT ( 'NONE',  ( 60.00000000000000000, 84.00000000000000000, 5.000000000000000000 ) ) ;
#473 = DIRECTION ( 'NONE',  ( 0.0000000000000000000, 0.0000000000000000000, 1.000000000000000000 ) ) ;
#474 = DIRECTION ( 'NONE',  ( 1.000000000000000000, 0.0000000000000000000, 0.0000000000000000000 ) ) ;
#475 = DIRECTION ( 'NONE',  ( 1.000000000000000000, 0.0000000000000000000, 0.0000000000000000000 ) ) ;
#476 = DIRECTION ( 'NONE',  ( 0.0000000000000000000, 0.0000000000000000000, 1.000000000000000000 ) ) ;
#477 = AXIS2_PLACEMENT_3D ( 'NONE', #453, #476, #475 ) ;
#478 = CIRCLE ( 'NONE', #477, 3.099999999999991700 ) ;
#479 = CIRCLE ( 'NONE', #467, 3.100000000000005400 ) ;
#480 = LINE ( 'NONE', #456, #455 ) ;
#481 = DIRECTION ( 'NONE',  ( 0.0000000000000000000, 0.0000000000000000000, -1.000000000000000000 ) ) ;
#482 = DIRECTION ( 'NONE',  ( 1.000000000000000000, 0.0000000000000000000, 0.0000000000000000000 ) ) ;
#483 = CARTESIAN_POINT ( 'NONE',  ( 0.0000000000000000000, 0.0000000000000000000, 5.000000000000000000 ) ) ;
#484 = AXIS2_PLACEMENT_3D ( 'NONE', #483, #482, #481 ) ;
#485 = FACE_BOUND ( 'NONE', #151, .T. ) ;
#486 = FACE_BOUND ( 'NONE', #160, .T. ) ;
#487 = DIRECTION ( 'NONE',  ( -0.7071067811865474600, -0.7071067811865474600, 0.0000000000000000000 ) ) ;
#488 = VECTOR ( 'NONE', #487, 1000.000000000000100 ) ;
#489 = FACE_BOUND ( 'NONE', #91, .T. ) ;
#490 = FACE_BOUND ( 'NONE', #118, .T. ) ;
#491 = DIRECTION ( 'NONE',  ( 0.0000000000000000000, 0.0000000000000000000, 1.000000000000000000 ) ) ;
#492 = DIRECTION ( 'NONE',  ( -1.000000000000000000, 0.0000000000000000000, 0.0000000000000000000 ) ) ;
#493 = CARTESIAN_POINT ( 'NONE',  ( 144.0000000000000000, 0.0000000000000000000, 5.000000000000000000 ) ) ;
#494 = AXIS2_PLACEMENT_3D ( 'NONE', #493, #492, #491 ) ;
#495 = PLANE ( 'NONE',  #494 ) ;
#496 = FACE_OUTER_BOUND ( 'NONE', #171, .T. ) ;
#497 = FACE_BOUND ( 'NONE', #98, .T. ) ;
#498 = FACE_BOUND ( 'NONE', #73, .T. ) ;
#499 = FACE_BOUND ( 'NONE', #88, .T. ) ;
#500 = FACE_BOUND ( 'NONE', #78, .T. ) ;
#501 = FACE_BOUND ( 'NONE', #176, .T. ) ;
#502 = DIRECTION ( 'NONE',  ( 0.0000000000000000000, 0.0000000000000000000, 1.000000000000000000 ) ) ;
#503 = DIRECTION ( 'NONE',  ( 0.0000000000000000000, 1.000000000000000000, 0.0000000000000000000 ) ) ;
#504 = CARTESIAN_POINT ( 'NONE',  ( 0.0000000000000000000, 0.0000000000000000000, 5.000000000000000000 ) ) ;
#505 = AXIS2_PLACEMENT_3D ( 'NONE', #504, #503, #502 ) ;
#506 = PLANE ( 'NONE',  #505 ) ;
#507 = FACE_OUTER_BOUND ( 'NONE', #116, .T. ) ;
#508 = DIRECTION ( 'NONE',  ( -1.000000000000000000, 0.0000000000000000000, 0.0000000000000000000 ) ) ;
#509 = VECTOR ( 'NONE', #508, 1000.000000000000000 ) ;
#510 = CARTESIAN_POINT ( 'NONE',  ( 60.00000000000000000, 84.00000000000000000, 0.0000000000000000000 ) ) ;
#511 = CARTESIAN_POINT ( 'NONE',  ( 42.00000000000000000, 12.00000000000000000, 8.673617379884035500E-016 ) ) ;
#512 = AXIS2_PLACEMENT_3D ( 'NONE', #511, #548, #547 ) ;
#513 = DIRECTION ( 'NONE',  ( 0.7071067811865474600, 0.7071067811865474600, 0.0000000000000000000 ) ) ;
#514 = DIRECTION ( 'NONE',  ( 0.7071067811865475700, -0.7071067811865475700, 0.0000000000000000000 ) ) ;
#515 = CARTESIAN_POINT ( 'NONE',  ( 0.0000000000000000000, 24.00000000000000000, 5.000000000000000000 ) ) ;
#516 = AXIS2_PLACEMENT_3D ( 'NONE', #515, #514, #513 ) ;
#517 = LINE ( 'NONE', #510, #509 ) ;
#518 = CIRCLE ( 'NONE', #552, 3.099999999999998800 ) ;
#519 = DIRECTION ( 'NONE',  ( 1.000000000000000000, 0.0000000000000000000, 0.0000000000000000000 ) ) ;
#520 = DIRECTION ( 'NONE',  ( 0.0000000000000000000, 0.0000000000000000000, 1.000000000000000000 ) ) ;
#521 = CARTESIAN_POINT ( 'NONE',  ( 102.0000000000000000, 12.00000000000000000, 5.000000000000000900 ) ) ;
#522 = AXIS2_PLACEMENT_3D ( 'NONE', #521, #520, #519 ) ;
#523 = PLANE ( 'NONE',  #536 ) ;
#524 = DIRECTION ( 'NONE',  ( 1.000000000000000000, 0.0000000000000000000, 0.0000000000000000000 ) ) ;
#525 = DIRECTION ( 'NONE',  ( 0.0000000000000000000, 0.0000000000000000000, 1.000000000000000000 ) ) ;
#526 = CARTESIAN_POINT ( 'NONE',  ( 42.00000000000000000, 12.00000000000000000, 5.000000000000000000 ) ) ;
#527 = CIRCLE ( 'NONE', #522, 3.099999999999991700 ) ;
#528 = DIRECTION ( 'NONE',  ( 1.000000000000000000, 0.0000000000000000000, 0.0000000000000000000 ) ) ;
#529 = DIRECTION ( 'NONE',  ( 1.000000000000000000, 0.0000000000000000000, 0.0000000000000000000 ) ) ;
#530 = DIRECTION ( 'NONE',  ( 0.0000000000000000000, 0.0000000000000000000, 1.000000000000000000 ) ) ;
#531 = AXIS2_PLACEMENT_3D ( 'NONE', #553, #530, #529 ) ;
#532 = CIRCLE ( 'NONE', #531, 3.100000000000005400 ) ;
#533 = CIRCLE ( 'NONE', #512, 3.099999999999998800 ) ;
#534 = FACE_OUTER_BOUND ( 'NONE', #234, .T. ) ;
#535 = FACE_BOUND ( 'NONE', #154, .T. ) ;
#536 = AXIS2_PLACEMENT_3D ( 'NONE', #567, #566, #565 ) ;
#537 = LINE ( 'NONE', #568, #488 ) ;
#538 = DIRECTION ( 'NONE',  ( -0.7071067811865474600, 0.7071067811865474600, 0.0000000000000000000 ) ) ;
#539 = VECTOR ( 'NONE', #538, 1000.000000000000100 ) ;
#540 = CARTESIAN_POINT ( 'NONE',  ( 83.99999999999998600, 84.00000000000000000, 0.0000000000000000000 ) ) ;
#541 = LINE ( 'NONE', #540, #539 ) ;
#542 = CARTESIAN_POINT ( 'NONE',  ( 144.0000000000000000, 24.00000000000000000, 5.000000000000000000 ) ) ;
#543 = CARTESIAN_POINT ( 'NONE',  ( 144.0000000000000000, 24.00000000000000000, 0.0000000000000000000 ) ) ;
#544 = VECTOR ( 'NONE', #577, 1000.000000000000000 ) ;
#545 = CARTESIAN_POINT ( 'NONE',  ( 0.0000000000000000000, 0.0000000000000000000, 5.000000000000000000 ) ) ;
#546 = LINE ( 'NONE', #545, #544 ) ;
#547 = DIRECTION ( 'NONE',  ( 1.000000000000000000, 0.0000000000000000000, 0.0000000000000000000 ) ) ;
#548 = DIRECTION ( 'NONE',  ( 0.0000000000000000000, 0.0000000000000000000, 1.000000000000000000 ) ) ;
#549 = DIRECTION ( 'NONE',  ( 1.000000000000000000, 0.0000000000000000000, 0.0000000000000000000 ) ) ;
#550 = DIRECTION ( 'NONE',  ( 0.0000000000000000000, 0.0000000000000000000, 1.000000000000000000 ) ) ;
#551 = CARTESIAN_POINT ( 'NONE',  ( 12.00000000000000000, 12.00000000000000000, 8.673617379884035500E-016 ) ) ;
#552 = AXIS2_PLACEMENT_3D ( 'NONE', #551, #550, #549 ) ;
#553 = CARTESIAN_POINT ( 'NONE',  ( 72.00000000000000000, 72.00000000000000000, 8.673617379884035500E-016 ) ) ;
#554 = DIRECTION ( 'NONE',  ( 0.7071067811865474600, -0.7071067811865474600, 0.0000000000000000000 ) ) ;
#555 = DIRECTION ( 'NONE',  ( -0.7071067811865475700, -0.7071067811865475700, 0.0000000000000000000 ) ) ;
#556 = CARTESIAN_POINT ( 'NONE',  ( 83.99999999999998600, 84.00000000000000000, 5.000000000000000000 ) ) ;
#557 = AXIS2_PLACEMENT_3D ( 'NONE', #556, #555, #554 ) ;
#558 = PLANE ( 'NONE',  #557 ) ;
#559 = FACE_OUTER_BOUND ( 'NONE', #108, .T. ) ;
#560 = FACE_BOUND ( 'NONE', #133, .T. ) ;
#561 = FACE_BOUND ( 'NONE', #157, .T. ) ;
#562 = PLANE ( 'NONE',  #516 ) ;
#563 = FACE_OUTER_BOUND ( 'NONE', #128, .T. ) ;
#564 = CARTESIAN_POINT ( 'NONE',  ( 83.99999999999998600, 84.00000000000000000, 0.0000000000000000000 ) ) ;
#565 = DIRECTION ( 'NONE',  ( -1.000000000000000000, 0.0000000000000000000, 0.0000000000000000000 ) ) ;
#566 = DIRECTION ( 'NONE',  ( 0.0000000000000000000, 0.0000000000000000000, -1.000000000000000000 ) ) ;
#567 = CARTESIAN_POINT ( 'NONE',  ( 0.0000000000000000000, 84.00000000000000000, 0.0000000000000000000 ) ) ;
#568 = CARTESIAN_POINT ( 'NONE',  ( 0.0000000000000000000, 24.00000000000000000, 0.0000000000000000000 ) ) ;
#569 = DIRECTION ( 'NONE',  ( 0.0000000000000000000, -1.000000000000000000, 0.0000000000000000000 ) ) ;
#570 = VECTOR ( 'NONE', #569, 1000.000000000000000 ) ;
#571 = CARTESIAN_POINT ( 'NONE',  ( 0.0000000000000000000, 0.0000000000000000000, 5.000000000000000000 ) ) ;
#572 = LINE ( 'NONE', #571, #570 ) ;
#573 = DIRECTION ( 'NONE',  ( -0.7071067811865474600, 0.7071067811865474600, 0.0000000000000000000 ) ) ;
#574 = VECTOR ( 'NONE', #573, 1000.000000000000100 ) ;
#575 = CARTESIAN_POINT ( 'NONE',  ( 83.99999999999998600, 84.00000000000000000, 5.000000000000000000 ) ) ;
#576 = LINE ( 'NONE', #575, #574 ) ;
#577 = DIRECTION ( 'NONE',  ( 1.000000000000000000, 0.0000000000000000000, 0.0000000000000000000 ) ) ;
#578 = CYLINDRICAL_SURFACE ( 'NONE', #579, 3.099999999999991700 ) ;
#579 = AXIS2_PLACEMENT_3D ( 'NONE', #526, #525, #524 ) ;
#580 = FACE_OUTER_BOUND ( 'NONE', #146, .T. ) ;
#581 = CARTESIAN_POINT ( 'NONE',  ( 60.00000000000000000, 84.00000000000000000, 0.0000000000000000000 ) ) ;
#582 = PLANE ( 'NONE',  #589 ) ;
#583 = DIRECTION ( 'NONE',  ( 1.000000000000000000, 0.0000000000000000000, 0.0000000000000000000 ) ) ;
#584 = DIRECTION ( 'NONE',  ( 0.0000000000000000000, 0.0000000000000000000, 1.000000000000000000 ) ) ;
#585 = AXIS2_PLACEMENT_3D ( 'NONE', #590, #584, #583 ) ;
#586 = CYLINDRICAL_SURFACE ( 'NONE', #585, 3.100000000000005400 ) ;
#587 = LINE ( 'NONE', #613, #612 ) ;
#588 = FACE_BOUND ( 'NONE', #135, .T. ) ;
#589 = AXIS2_PLACEMENT_3D ( 'NONE', #625, #638, #647 ) ;
#590 = CARTESIAN_POINT ( 'NONE',  ( 72.00000000000000000, 72.00000000000000000, 5.000000000000000000 ) ) ;
#591 = DIRECTION ( 'NONE',  ( 1.000000000000000000, 0.0000000000000000000, 0.0000000000000000000 ) ) ;
#592 = DIRECTION ( 'NONE',  ( 0.0000000000000000000, 0.0000000000000000000, 1.000000000000000000 ) ) ;
#593 = CARTESIAN_POINT ( 'NONE',  ( 72.00000000000000000, 72.00000000000000000, 5.000000000000000900 ) ) ;
#594 = AXIS2_PLACEMENT_3D ( 'NONE', #593, #592, #591 ) ;
#595 = DIRECTION ( 'NONE',  ( 1.000000000000000000, 0.0000000000000000000, 0.0000000000000000000 ) ) ;
#596 = DIRECTION ( 'NONE',  ( 0.0000000000000000000, 0.0000000000000000000, 1.000000000000000000 ) ) ;
#597 = STYLED_ITEM ( 'NONE', ( #598 ), #205 ) ;
#598 = PRESENTATION_STYLE_ASSIGNMENT (( #599 ) ) ;
#599 = SURFACE_STYLE_USAGE ( .BOTH. , #600 ) ;
#600 = SURFACE_SIDE_STYLE ('',( #601 ) ) ;
#601 = SURFACE_STYLE_FILL_AREA ( #606 ) ;
#602 = COLOUR_RGB ( '',0.7529411764705882200, 0.7529411764705882200, 0.7529411764705882200 ) ;
#603 = DIRECTION ( 'NONE',  ( 1.000000000000000000, 0.0000000000000000000, 0.0000000000000000000 ) ) ;
#604 = DIRECTION ( 'NONE',  ( 0.0000000000000000000, 0.0000000000000000000, 1.000000000000000000 ) ) ;
#605 = AXIS2_PLACEMENT_3D ( 'NONE', #608, #604, #603 ) ;
#606 = FILL_AREA_STYLE ('',( #607 ) ) ;
#607 = FILL_AREA_STYLE_COLOUR ( '', #602 ) ;
#608 = CARTESIAN_POINT ( 'NONE',  ( 42.00000000000000000, 12.00000000000000000, 5.000000000000000000 ) ) ;
#609 = CYLINDRICAL_SURFACE ( 'NONE', #605, 3.099999999999991700 ) ;
#610 = FACE_OUTER_BOUND ( 'NONE', #203, .T. ) ;
#611 = DIRECTION ( 'NONE',  ( 0.0000000000000000000, 0.0000000000000000000, 1.000000000000000000 ) ) ;
#612 = VECTOR ( 'NONE', #611, 1000.000000000000000 ) ;
#613 = CARTESIAN_POINT ( 'NONE',  ( 68.89999999999999100, 72.00000000000000000, 5.000000000000000000 ) ) ;
#614 = CARTESIAN_POINT ( 'NONE',  ( 75.09999999999999400, 12.00000000000000000, 8.673617379884035500E-016 ) ) ;
#615 = CARTESIAN_POINT ( 'NONE',  ( 68.89999999999999100, 12.00000000000000000, 8.673617379884035500E-016 ) ) ;
#616 = DIRECTION ( 'NONE',  ( 1.000000000000000000, 0.0000000000000000000, 0.0000000000000000000 ) ) ;
#617 = DIRECTION ( 'NONE',  ( 0.0000000000000000000, 0.0000000000000000000, 1.000000000000000000 ) ) ;
#618 = CARTESIAN_POINT ( 'NONE',  ( 72.00000000000000000, 12.00000000000000000, 8.673617379884035500E-016 ) ) ;
#619 = AXIS2_PLACEMENT_3D ( 'NONE', #618, #617, #616 ) ;
#620 =( NAMED_UNIT ( * ) SI_UNIT ( $, .STERADIAN. ) SOLID_ANGLE_UNIT ( ) );
#621 =( NAMED_UNIT ( * ) PLANE_ANGLE_UNIT ( ) SI_UNIT ( $, .RADIAN. ) );
#622 =( LENGTH_UNIT ( ) NAMED_UNIT ( * ) SI_UNIT ( .MILLI., .METRE. ) );
#623 = MECHANICAL_DESIGN_GEOMETRIC_PRESENTATION_REPRESENTATION (  '', ( #597 ), #660 ) ;
#624 = PRESENTATION_LAYER_ASSIGNMENT (  '', '', ( #597 ) ) ;
#625 = CARTESIAN_POINT ( 'NONE',  ( 0.0000000000000000000, 84.00000000000000000, 5.000000000000000000 ) ) ;
#626 = CARTESIAN_POINT ( 'NONE',  ( 132.0000000000000000, 12.00000000000000000, 5.000000000000000900 ) ) ;
#627 = AXIS2_PLACEMENT_3D ( 'NONE', #626, #637, #636 ) ;
#628 = CIRCLE ( 'NONE', #627, 3.099999999999991700 ) ;
#629 = LINE ( 'NONE', #645, #644 ) ;
#630 = DIRECTION ( 'NONE',  ( 1.000000000000000000, 0.0000000000000000000, 0.0000000000000000000 ) ) ;
#631 = DIRECTION ( 'NONE',  ( 0.0000000000000000000, 0.0000000000000000000, 1.000000000000000000 ) ) ;
#632 = AXIS2_PLACEMENT_3D ( 'NONE', #635, #631, #630 ) ;
#633 = CIRCLE ( 'NONE', #632, 3.100000000000005400 ) ;
#634 = CIRCLE ( 'NONE', #653, 3.100000000000005400 ) ;
#635 = CARTESIAN_POINT ( 'NONE',  ( 102.0000000000000000, 12.00000000000000000, 8.673617379884035500E-016 ) ) ;
#636 = DIRECTION ( 'NONE',  ( 1.000000000000000000, 0.0000000000000000000, 0.0000000000000000000 ) ) ;
#637 = DIRECTION ( 'NONE',  ( 0.0000000000000000000, 0.0000000000000000000, 1.000000000000000000 ) ) ;
#638 = DIRECTION ( 'NONE',  ( 0.0000000000000000000, 0.0000000000000000000, -1.000000000000000000 ) ) ;
#639 = CARTESIAN_POINT ( 'NONE',  ( 72.00000000000000000, 72.00000000000000000, 5.000000000000000900 ) ) ;
#640 = AXIS2_PLACEMENT_3D ( 'NONE', #639, #596, #595 ) ;
#641 = CIRCLE ( 'NONE', #640, 3.099999999999991700 ) ;
#642 = CIRCLE ( 'NONE', #619, 3.100000000000005400 ) ;
#643 = DIRECTION ( 'NONE',  ( 0.0000000000000000000, 0.0000000000000000000, 1.000000000000000000 ) ) ;
#644 = VECTOR ( 'NONE', #643, 1000.000000000000000 ) ;
#645 = CARTESIAN_POINT ( 'NONE',  ( 68.89999999999999100, 12.00000000000000000, 5.000000000000000000 ) ) ;
#646 = CARTESIAN_POINT ( 'NONE',  ( 72.00000000000000000, 12.00000000000000000, 8.673617379884035500E-016 ) ) ;
#647 = DIRECTION ( 'NONE',  ( -1.000000000000000000, 0.0000000000000000000, 0.0000000000000000000 ) ) ;
#648 = CIRCLE ( 'NONE', #594, 3.099999999999991700 ) ;
#649 = FACE_OUTER_BOUND ( 'NONE', #199, .T. ) ;
#650 = FACE_OUTER_BOUND ( 'NONE', #92, .T. ) ;
#651 = DIRECTION ( 'NONE',  ( 1.000000000000000000, 0.0000000000000000000, 0.0000000000000000000 ) ) ;
#652 = DIRECTION ( 'NONE',  ( 0.0000000000000000000, 0.0000000000000000000, 1.000000000000000000 ) ) ;
#653 = AXIS2_PLACEMENT_3D ( 'NONE', #646, #652, #651 ) ;
#654 = CARTESIAN_POINT ( 'NONE',  ( 132.0000000000000000, 12.00000000000000000, 5.000000000000000000 ) ) ;
#655 = FACE_OUTER_BOUND ( 'NONE', #225, .T. ) ;
#656 = DIRECTION ( 'NONE',  ( 0.0000000000000000000, 0.0000000000000000000, 1.000000000000000000 ) ) ;
#657 = VECTOR ( 'NONE', #656, 1000.000000000000000 ) ;
#658 = CARTESIAN_POINT ( 'NONE',  ( 75.09999999999999400, 42.00000000000000000, 5.000000000000000000 ) ) ;
#659 = LINE ( 'NONE', #658, #657 ) ;
#660 =( GEOMETRIC_REPRESENTATION_CONTEXT ( 3 ) GLOBAL_UNCERTAINTY_ASSIGNED_CONTEXT ( ( #691 ) ) GLOBAL_UNIT_ASSIGNED_CONTEXT ( ( #622, #621, #620 ) ) REPRESENTATION_CONTEXT ( 'NONE', 'WORKASPACE' ) );
#661 = DIRECTION ( 'NONE',  ( 1.000000000000000000, 0.0000000000000000000, 0.0000000000000000000 ) ) ;
#662 = DIRECTION ( 'NONE',  ( 0.0000000000000000000, 0.0000000000000000000, 1.000000000000000000 ) ) ;
#663 = CARTESIAN_POINT ( 'NONE',  ( 72.00000000000000000, 12.00000000000000000, 5.000000000000000900 ) ) ;
#664 = AXIS2_PLACEMENT_3D ( 'NONE', #663, #662, #661 ) ;
#665 = CARTESIAN_POINT ( 'NONE',  ( 75.09999999999999400, 72.00000000000000000, 5.000000000000000000 ) ) ;
#666 = LINE ( 'NONE', #665, #716 ) ;
#667 = CARTESIAN_POINT ( 'NONE',  ( 75.09999999999998000, 42.00000000000000000, 5.000000000000000900 ) ) ;
#668 = DIRECTION ( 'NONE',  ( 1.000000000000000000, 0.0000000000000000000, 0.0000000000000000000 ) ) ;
#669 = DIRECTION ( 'NONE',  ( 0.0000000000000000000, 0.0000000000000000000, 1.000000000000000000 ) ) ;
#670 = CARTESIAN_POINT ( 'NONE',  ( 12.00000000000000000, 12.00000000000000000, 5.000000000000000000 ) ) ;
#671 = AXIS2_PLACEMENT_3D ( 'NONE', #670, #669, #668 ) ;
#672 = CYLINDRICAL_SURFACE ( 'NONE', #671, 3.099999999999993400 ) ;
#673 = FACE_OUTER_BOUND ( 'NONE', #188, .T. ) ;
#674 = CARTESIAN_POINT ( 'NONE',  ( 75.09999999999998000, 72.00000000000000000, 5.000000000000000900 ) ) ;
#675 = DIRECTION ( 'NONE',  ( 1.000000000000000000, 0.0000000000000000000, 0.0000000000000000000 ) ) ;
#676 = DIRECTION ( 'NONE',  ( 0.0000000000000000000, 0.0000000000000000000, 1.000000000000000000 ) ) ;
#677 = CARTESIAN_POINT ( 'NONE',  ( 102.0000000000000000, 12.00000000000000000, 5.000000000000000000 ) ) ;
#678 = AXIS2_PLACEMENT_3D ( 'NONE', #677, #676, #675 ) ;
#679 = CYLINDRICAL_SURFACE ( 'NONE', #678, 3.100000000000005400 ) ;
#680 = DIRECTION ( 'NONE',  ( 1.000000000000000000, 0.0000000000000000000, 0.0000000000000000000 ) ) ;
#681 = DIRECTION ( 'NONE',  ( 0.0000000000000000000, 0.0000000000000000000, 1.000000000000000000 ) ) ;
#682 = AXIS2_PLACEMENT_3D ( 'NONE', #654, #681, #680 ) ;
#683 = FACE_OUTER_BOUND ( 'NONE', #214, .T. ) ;
#684 = CYLINDRICAL_SURFACE ( 'NONE', #682, 3.099999999999991700 ) ;
#685 = FACE_OUTER_BOUND ( 'NONE', #221, .T. ) ;
#686 = DIRECTION ( 'NONE',  ( 1.000000000000000000, 0.0000000000000000000, 0.0000000000000000000 ) ) ;
#687 = DIRECTION ( 'NONE',  ( 0.0000000000000000000, 0.0000000000000000000, 1.000000000000000000 ) ) ;
#688 = CARTESIAN_POINT ( 'NONE',  ( 72.00000000000000000, 12.00000000000000000, 5.000000000000000000 ) ) ;
#689 = AXIS2_PLACEMENT_3D ( 'NONE', #688, #687, #686 ) ;
#690 = CYLINDRICAL_SURFACE ( 'NONE', #689, 3.100000000000005400 ) ;
#691 = UNCERTAINTY_MEASURE_WITH_UNIT (LENGTH_MEASURE( 1.000000000000000100E-005 ), #622, 'distance_accuracy_value', 'NONE');
#692 = CIRCLE ( 'NONE', #664, 3.099999999999991700 ) ;
#693 = CARTESIAN_POINT ( 'NONE',  ( 68.90000000000000600, 12.00000000000000000, 5.000000000000000900 ) ) ;
#694 = CARTESIAN_POINT ( 'NONE',  ( 75.09999999999999400, 42.00000000000000000, 8.673617379884035500E-016 ) ) ;
#695 = AXIS2_PLACEMENT_3D ( 'NONE', #732, #749, #757 ) ;
#696 = PRODUCT_DEFINITION_SHAPE ( 'NONE', 'NONE',  #724 ) ;
#697 = CARTESIAN_POINT ( 'NONE',  ( 72.00000000000000000, 42.00000000000000000, 8.673617379884035500E-016 ) ) ;
#698 = AXIS2_PLACEMENT_3D ( 'NONE', #697, #715, #714 ) ;
#699 = DIRECTION ( 'NONE',  ( 1.000000000000000000, 0.0000000000000000000, 0.0000000000000000000 ) ) ;
#700 = DIRECTION ( 'NONE',  ( 0.0000000000000000000, 0.0000000000000000000, 1.000000000000000000 ) ) ;
#701 = CARTESIAN_POINT ( 'NONE',  ( 72.00000000000000000, 42.00000000000000000, 5.000000000000000000 ) ) ;
#702 = CYLINDRICAL_SURFACE ( 'NONE', #709, 3.100000000000005400 ) ;
#703 = FACE_OUTER_BOUND ( 'NONE', #269, .T. ) ;
#704 = CARTESIAN_POINT ( 'NONE',  ( 72.00000000000000000, 72.00000000000000000, 5.000000000000000000 ) ) ;
#705 = AXIS2_PLACEMENT_3D ( 'NONE', #704, #751, #750 ) ;
#706 = CYLINDRICAL_SURFACE ( 'NONE', #705, 3.100000000000005400 ) ;
#707 = FACE_OUTER_BOUND ( 'NONE', #299, .T. ) ;
#708 = AXIS2_PLACEMENT_3D ( 'NONE', #741, #740, #739 ) ;
#709 = AXIS2_PLACEMENT_3D ( 'NONE', #712, #711, #710 ) ;
#710 = DIRECTION ( 'NONE',  ( 1.000000000000000000, 0.0000000000000000000, 0.0000000000000000000 ) ) ;
#711 = DIRECTION ( 'NONE',  ( 0.0000000000000000000, 0.0000000000000000000, 1.000000000000000000 ) ) ;
#712 = CARTESIAN_POINT ( 'NONE',  ( 72.00000000000000000, 12.00000000000000000, 5.000000000000000000 ) ) ;
#713 = CARTESIAN_POINT ( 'NONE',  ( 68.90000000000000600, 42.00000000000000000, 5.000000000000000900 ) ) ;
#714 = DIRECTION ( 'NONE',  ( 1.000000000000000000, 0.0000000000000000000, 0.0000000000000000000 ) ) ;
#715 = DIRECTION ( 'NONE',  ( 0.0000000000000000000, 0.0000000000000000000, 1.000000000000000000 ) ) ;
#716 = VECTOR ( 'NONE', #719, 1000.000000000000000 ) ;
#717 = CARTESIAN_POINT ( 'NONE',  ( 68.90000000000000600, 72.00000000000000000, 5.000000000000000900 ) ) ;
#718 = CARTESIAN_POINT ( 'NONE',  ( 68.89999999999999100, 42.00000000000000000, 8.673617379884035500E-016 ) ) ;
#719 = DIRECTION ( 'NONE',  ( 0.0000000000000000000, 0.0000000000000000000, 1.000000000000000000 ) ) ;
#720 = LINE ( 'NONE', #737, #736 ) ;
#721 = CARTESIAN_POINT ( 'NONE',  ( 75.09999999999998000, 12.00000000000000000, 5.000000000000000900 ) ) ;
#722 = PRODUCT_RELATED_PRODUCT_CATEGORY ( 'part', '', ( #728 ) ) ;
#723 = PRODUCT_DEFINITION_FORMATION_WITH_SPECIFIED_SOURCE ( 'ANY', '', #728, .NOT_KNOWN. ) ;
#724 = PRODUCT_DEFINITION ( 'UNKNOWN', '', #723, #725 ) ;
#725 = PRODUCT_DEFINITION_CONTEXT ( 'detailed design', #727, 'design' ) ;
#726 = APPLICATION_PROTOCOL_DEFINITION ( 'draft international standard', 'automotive_design', 1998, #727 ) ;
#727 = APPLICATION_CONTEXT ( 'automotive_design' ) ;
#728 = PRODUCT ( '89DEFAU10261248296373', '89DEFAU10261248296373', '', ( #729 ) ) ;
#729 = PRODUCT_CONTEXT ( 'NONE', #731, 'mechanical' ) ;
#730 = APPLICATION_PROTOCOL_DEFINITION ( 'draft international standard', 'automotive_design', 1998, #731 ) ;
#731 = APPLICATION_CONTEXT ( 'automotive_design' ) ;
#732 = CARTESIAN_POINT ( 'NONE',  ( 72.00000000000000000, 42.00000000000000000, 5.000000000000000000 ) ) ;
#733 = CYLINDRICAL_SURFACE ( 'NONE', #734, 3.100000000000005400 ) ;
#734 = AXIS2_PLACEMENT_3D ( 'NONE', #701, #700, #699 ) ;
#735 = DIRECTION ( 'NONE',  ( 0.0000000000000000000, 0.0000000000000000000, 1.000000000000000000 ) ) ;
#736 = VECTOR ( 'NONE', #735, 1000.000000000000000 ) ;
#737 = CARTESIAN_POINT ( 'NONE',  ( 75.09999999999999400, 12.00000000000000000, 5.000000000000000000 ) ) ;
#738 =( GEOMETRIC_REPRESENTATION_CONTEXT ( 3 ) GLOBAL_UNCERTAINTY_ASSIGNED_CONTEXT ( ( #765 ) ) GLOBAL_UNIT_ASSIGNED_CONTEXT ( ( #770, #769, #766 ) ) REPRESENTATION_CONTEXT ( 'NONE', 'WORKASPACE' ) );
#739 = DIRECTION ( 'NONE',  ( 1.000000000000000000, 0.0000000000000000000, 0.0000000000000000000 ) ) ;
#740 = DIRECTION ( 'NONE',  ( 0.0000000000000000000, 0.0000000000000000000, 1.000000000000000000 ) ) ;
#741 = CARTESIAN_POINT ( 'NONE',  ( 0.0000000000000000000, 0.0000000000000000000, 0.0000000000000000000 ) ) ;
#742 = SHAPE_DEFINITION_REPRESENTATION ( #696, #743 ) ;
#743 = ADVANCED_BREP_SHAPE_REPRESENTATION ( '89DEFAU10261248296373', ( #205, #708 ), #738 ) ;
#744 = DIRECTION ( 'NONE',  ( 1.000000000000000000, 0.0000000000000000000, 0.0000000000000000000 ) ) ;
#745 = DIRECTION ( 'NONE',  ( 0.0000000000000000000, 0.0000000000000000000, 1.000000000000000000 ) ) ;
#746 = FACE_OUTER_BOUND ( 'NONE', #245, .T. ) ;
#747 = CIRCLE ( 'NONE', #698, 3.100000000000005400 ) ;
#748 = CIRCLE ( 'NONE', #768, 3.099999999999991700 ) ;
#749 = DIRECTION ( 'NONE',  ( 0.0000000000000000000, 0.0000000000000000000, 1.000000000000000000 ) ) ;
#750 = DIRECTION ( 'NONE',  ( 1.000000000000000000, 0.0000000000000000000, 0.0000000000000000000 ) ) ;
#751 = DIRECTION ( 'NONE',  ( 0.0000000000000000000, 0.0000000000000000000, 1.000000000000000000 ) ) ;
#752 = FACE_OUTER_BOUND ( 'NONE', #300, .T. ) ;
#753 = DIRECTION ( 'NONE',  ( 0.0000000000000000000, 0.0000000000000000000, 1.000000000000000000 ) ) ;
#754 = VECTOR ( 'NONE', #753, 1000.000000000000000 ) ;
#755 = CARTESIAN_POINT ( 'NONE',  ( 68.89999999999999100, 42.00000000000000000, 5.000000000000000000 ) ) ;
#756 = LINE ( 'NONE', #755, #754 ) ;
#757 = DIRECTION ( 'NONE',  ( 1.000000000000000000, 0.0000000000000000000, 0.0000000000000000000 ) ) ;
#758 = CARTESIAN_POINT ( 'NONE',  ( 72.00000000000000000, 72.00000000000000000, 8.673617379884035500E-016 ) ) ;
#759 = AXIS2_PLACEMENT_3D ( 'NONE', #758, #764, #763 ) ;
#760 = CIRCLE ( 'NONE', #759, 3.100000000000005400 ) ;
#761 = CARTESIAN_POINT ( 'NONE',  ( 75.09999999999999400, 72.00000000000000000, 8.673617379884035500E-016 ) ) ;
#762 = CARTESIAN_POINT ( 'NONE',  ( 68.89999999999999100, 72.00000000000000000, 8.673617379884035500E-016 ) ) ;
#763 = DIRECTION ( 'NONE',  ( 1.000000000000000000, 0.0000000000000000000, 0.0000000000000000000 ) ) ;
#764 = DIRECTION ( 'NONE',  ( 0.0000000000000000000, 0.0000000000000000000, 1.000000000000000000 ) ) ;
#765 = UNCERTAINTY_MEASURE_WITH_UNIT (LENGTH_MEASURE( 1.000000000000000100E-005 ), #770, 'distance_accuracy_value', 'NONE');
#766 =( NAMED_UNIT ( * ) SI_UNIT ( $, .STERADIAN. ) SOLID_ANGLE_UNIT ( ) );
#767 = CARTESIAN_POINT ( 'NONE',  ( 72.00000000000000000, 42.00000000000000000, 5.000000000000000900 ) ) ;
#768 = AXIS2_PLACEMENT_3D ( 'NONE', #767, #745, #744 ) ;
#769 =( NAMED_UNIT ( * ) PLANE_ANGLE_UNIT ( ) SI_UNIT ( $, .RADIAN. ) );
#770 =( LENGTH_UNIT ( ) NAMED_UNIT ( * ) SI_UNIT ( .MILLI., .METRE. ) );
#771 = CYLINDRICAL_SURFACE ( 'NONE', #695, 3.100000000000005400 ) ;
ENDSEC;
END-ISO-10303-21;
