  0
SECTION
  2
HEADER
  9
$ACADVER
  1
AC1009
  9
$INSBASE
 10
0.0
 20
0.0
 30
0.0
  9
$EXTMIN
 10
0.0
 20
0.0
 30
0.0
  9
$EXTMAX
 10
0.0
 20
0.0
 30
0.0
  0
ENDSEC
  0
SECTION
  2
TABLES
  0
TABLE
  2
VPORT
 70
0
  0
ENDTAB
  0
TABLE
  2
LTYPE
 70
1
  0
LTYPE
  2
CONTINUOUS
 70
0
  3
Solid line
 72
65
 73
0
 40
0.0
  0
ENDTAB
  0
TABLE
  2
LAYER
 70
1
  0
LAYER
  2
0
 70
64
 62
7
  6
continuous
  0
ENDTAB
  0
TABLE
  2
STYLE
 70
1
  0
STYLE
  2
STANDARD
 70
0
 40
0
 41
1.0
 50
0.0
 71
0
 42
1
 3
ARIAL.TTF
 4

  0
ENDTAB
  0
TABLE
  2
VIEW
 70
0
  0
ENDTAB
  0
ENDSEC
  0
SECTION
  2
BLOCKS
  0
BLOCK
  8
0
  2
PAD001
 70
0
 10
0.0
 20
0.0
 30
0.0
  3
PAD001
  0
LINE
  8
0
 62
0
 10
-50.8
 20
44.45
 30
0.0
 11
50.8
 21
44.45
 31
0.0
  0
LINE
  8
0
 62
0
 10
50.8
 20
44.45
 30
0.0
 11
50.8
 21
-85.725
 31
0.0
  0
LINE
  8
0
 62
0
 10
50.8
 20
-85.725
 30
0.0
 11
-50.8
 21
-85.725
 31
0.0
  0
LINE
  8
0
 62
0
 10
-50.8
 20
-85.725
 30
0.0
 11
-50.8
 21
44.45
 31
0.0
  0
ARC
  8
0
 62
0
 10
0.0
 20
-36.3290605507
 30
0.0
 40
3.302
 50
-0.0
 51
-180.0
  0
LINE
  8
0
 62
0
 10
-3.302
 20
-36.3290605507
 30
0.0
 11
-3.302
 21
-55.3790605507
 31
0.0
  0
ARC
  8
0
 62
0
 10
0.0
 20
-55.3790605507
 30
0.0
 40
3.302
 50
-180.0
 51
0.0
  0
LINE
  8
0
 62
0
 10
3.302
 20
-36.3290605507
 30
0.0
 11
3.302
 21
-55.3790605507
 31
0.0
  0
CIRCLE
  8
0
 62
0
 10
39.878
 20
0.0
 30
0.0
 40
4.318
  0
CIRCLE
  8
0
 62
0
 10
39.878
 20
-30.1498
 30
0.0
 40
4.318
  0
CIRCLE
  8
0
 62
0
 10
39.878
 20
30.1498
 30
0.0
 40
4.318
  0
CIRCLE
  8
0
 62
0
 10
-39.878
 20
0.0
 30
0.0
 40
3.302
  0
CIRCLE
  8
0
 62
0
 10
-39.878
 20
-30.1498
 30
0.0
 40
3.302
  0
CIRCLE
  8
0
 62
0
 10
-39.878
 20
30.1498
 30
0.0
 40
3.302
  0
CIRCLE
  8
0
 62
0
 10
0.0
 20
31.75
 30
0.0
 40
1.651
  0
ENDBLK
  0
ENDSEC
  0
SECTION
  2
ENTITIES
  0
INSERT
  2
PAD001
  8
0
 62
0
 10
0.0
 20
0.0
 30
0.0
  0
ENDSEC
  0
EOF
