  0
SECTION
  2
HEADER
  9
$ACADVER
  1
AC1009
  9
$INSBASE
 10
0.0
 20
0.0
 30
0.0
  9
$EXTMIN
 10
0.0
 20
0.0
 30
0.0
  9
$EXTMAX
 10
0.0
 20
0.0
 30
0.0
  0
ENDSEC
  0
SECTION
  2
TABLES
  0
TABLE
  2
VPORT
 70
0
  0
ENDTAB
  0
TABLE
  2
LTYPE
 70
1
  0
LTYPE
  2
CONTINUOUS
 70
0
  3
Solid line
 72
65
 73
0
 40
0.0
  0
ENDTAB
  0
TABLE
  2
LAYER
 70
1
  0
LAYER
  2
0
 70
64
 62
7
  6
continuous
  0
ENDTAB
  0
TABLE
  2
STYLE
 70
1
  0
STYLE
  2
STANDARD
 70
0
 40
0
 41
1.0
 50
0.0
 71
0
 42
1
 3
ARIAL.TTF
 4

  0
ENDTAB
  0
TABLE
  2
VIEW
 70
0
  0
ENDTAB
  0
ENDSEC
  0
SECTION
  2
BLOCKS
  0
BLOCK
  8
0
  2
FILLET
 70
0
 10
0.0
 20
0.0
 30
0.0
  3
FILLET
  0
LINE
  8
0
 62
0
 10
12.7
 20
0.0
 30
0.0
 11
165.1
 21
0.0
 31
0.0
  0
ARC
  8
0
 62
0
 10
12.7
 20
12.7
 30
0.0
 40
12.7
 50
180.0
 51
-90.0
  0
ARC
  8
0
 62
0
 10
165.1
 20
12.7
 30
0.0
 40
12.7
 50
-90.0
 51
-0.0
  0
LINE
  8
0
 62
0
 10
0.0
 20
87.5058926962
 30
0.0
 11
0.0
 21
12.7
 31
0.0
  0
LINE
  8
0
 62
0
 10
177.8
 20
12.7
 30
0.0
 11
177.8
 21
304.8
 31
0.0
  0
ARC
  8
0
 62
0
 10
12.7
 20
87.5058926962
 30
0.0
 40
12.7
 50
167.471192291
 51
-180.0
  0
ARC
  8
0
 62
0
 10
165.1
 20
304.8
 30
0.0
 40
12.7
 50
-0.0
 51
90.0
  0
LINE
  8
0
 62
0
 10
48.5900037365
 20
307.555016814
 30
0.0
 11
0.302424335664
 21
90.2609095105
 31
0.0
  0
LINE
  8
0
 62
0
 10
165.1
 20
317.5
 30
0.0
 11
60.9875794008
 21
317.5
 31
0.0
  0
ARC
  8
0
 62
0
 10
60.9875794008
 20
304.8
 30
0.0
 40
12.7
 50
90.0
 51
167.471192291
  0
LINE
  8
0
 62
0
 10
69.85
 20
147.70655277
 30
0.0
 11
69.85
 21
156.59655277
 31
0.0
  0
ARC
  8
0
 62
0
 10
88.9
 20
156.59655277
 30
0.0
 40
19.05
 50
-0.0
 51
-180.0
  0
LINE
  8
0
 62
0
 10
107.95
 20
147.70655277
 30
0.0
 11
107.95
 21
156.59655277
 31
0.0
  0
ARC
  8
0
 62
0
 10
88.9
 20
147.70655277
 30
0.0
 40
19.05
 50
180.0
 51
0.0
  0
LINE
  8
0
 62
0
 10
83.566
 20
281.184
 30
0.0
 11
103.632
 21
281.184
 31
0.0
  0
ARC
  8
0
 62
0
 10
103.632
 20
278.384
 30
0.0
 40
2.8
 50
-90.0
 51
90.0
  0
LINE
  8
0
 62
0
 10
83.566
 20
275.584
 30
0.0
 11
103.632
 21
275.584
 31
0.0
  0
ARC
  8
0
 62
0
 10
83.566
 20
278.384
 30
0.0
 40
2.8
 50
90.0
 51
-90.0
  0
LINE
  8
0
 62
0
 10
83.566
 20
261.118
 30
0.0
 11
103.632
 21
261.118
 31
0.0
  0
ARC
  8
0
 62
0
 10
103.632
 20
258.318
 30
0.0
 40
2.8
 50
-90.0
 51
90.0
  0
LINE
  8
0
 62
0
 10
83.566
 20
255.518
 30
0.0
 11
103.632
 21
255.518
 31
0.0
  0
ARC
  8
0
 62
0
 10
83.566
 20
258.318
 30
0.0
 40
2.8
 50
90.0
 51
-90.0
  0
LINE
  8
0
 62
0
 10
83.566
 20
301.25
 30
0.0
 11
103.632
 21
301.25
 31
0.0
  0
ARC
  8
0
 62
0
 10
103.632
 20
298.45
 30
0.0
 40
2.8
 50
-90.0
 51
90.0
  0
LINE
  8
0
 62
0
 10
83.566
 20
295.65
 30
0.0
 11
103.632
 21
295.65
 31
0.0
  0
ARC
  8
0
 62
0
 10
83.566
 20
298.45
 30
0.0
 40
2.8
 50
90.0
 51
-90.0
  0
LINE
  8
0
 62
0
 10
83.566
 20
241.052
 30
0.0
 11
103.632
 21
241.052
 31
0.0
  0
ARC
  8
0
 62
0
 10
103.632
 20
238.252
 30
0.0
 40
2.8
 50
-90.0
 51
90.0
  0
LINE
  8
0
 62
0
 10
83.566
 20
235.452
 30
0.0
 11
103.632
 21
235.452
 31
0.0
  0
ARC
  8
0
 62
0
 10
83.566
 20
238.252
 30
0.0
 40
2.8
 50
90.0
 51
-90.0
  0
LINE
  8
0
 62
0
 10
52.6934472296
 20
147.70655277
 30
0.0
 11
52.6934472296
 21
156.59655277
 31
0.0
  0
ARC
  8
0
 62
0
 10
55.4934472296
 20
156.59655277
 30
0.0
 40
2.8
 50
-0.0
 51
-180.0
  0
LINE
  8
0
 62
0
 10
58.2934472296
 20
147.70655277
 30
0.0
 11
58.2934472296
 21
156.59655277
 31
0.0
  0
ARC
  8
0
 62
0
 10
55.4934472296
 20
147.70655277
 30
0.0
 40
2.8
 50
180.0
 51
0.0
  0
LINE
  8
0
 62
0
 10
119.50655277
 20
147.70655277
 30
0.0
 11
119.50655277
 21
156.59655277
 31
0.0
  0
ARC
  8
0
 62
0
 10
122.30655277
 20
156.59655277
 30
0.0
 40
2.8
 50
-0.0
 51
-180.0
  0
LINE
  8
0
 62
0
 10
125.10655277
 20
147.70655277
 30
0.0
 11
125.10655277
 21
156.59655277
 31
0.0
  0
ARC
  8
0
 62
0
 10
122.30655277
 20
147.70655277
 30
0.0
 40
2.8
 50
180.0
 51
0.0
  0
LINE
  8
0
 62
0
 10
86.1
 20
181.113105541
 30
0.0
 11
86.1
 21
190.003105541
 31
0.0
  0
ARC
  8
0
 62
0
 10
88.9
 20
190.003105541
 30
0.0
 40
2.8
 50
-0.0
 51
-180.0
  0
LINE
  8
0
 62
0
 10
91.7
 20
181.113105541
 30
0.0
 11
91.7
 21
190.003105541
 31
0.0
  0
ARC
  8
0
 62
0
 10
88.9
 20
181.113105541
 30
0.0
 40
2.8
 50
180.0
 51
0.0
  0
LINE
  8
0
 62
0
 10
86.1
 20
114.3
 30
0.0
 11
86.1
 21
123.19
 31
0.0
  0
ARC
  8
0
 62
0
 10
88.9
 20
123.19
 30
0.0
 40
2.8
 50
-0.0
 51
-180.0
  0
LINE
  8
0
 62
0
 10
91.7
 20
114.3
 30
0.0
 11
91.7
 21
123.19
 31
0.0
  0
ARC
  8
0
 62
0
 10
88.9
 20
114.3
 30
0.0
 40
2.8
 50
180.0
 51
0.0
  0
CIRCLE
  8
0
 62
0
 10
165.1
 20
12.7
 30
0.0
 40
4.0
  0
CIRCLE
  8
0
 62
0
 10
12.7
 20
12.7
 30
0.0
 40
4.0
  0
CIRCLE
  8
0
 62
0
 10
88.9
 20
12.7
 30
0.0
 40
4.0
  0
CIRCLE
  8
0
 62
0
 10
161.798
 20
238.252
 30
0.0
 40
2.9
  0
CIRCLE
  8
0
 62
0
 10
141.732
 20
238.252
 30
0.0
 40
2.9
  0
CIRCLE
  8
0
 62
0
 10
141.732
 20
218.186
 30
0.0
 40
2.9
  0
CIRCLE
  8
0
 62
0
 10
161.798
 20
218.186
 30
0.0
 40
2.9
  0
CIRCLE
  8
0
 62
0
 10
114.3
 20
91.948
 30
0.0
 40
2.9
  0
CIRCLE
  8
0
 62
0
 10
165.1
 20
91.948
 30
0.0
 40
2.9
  0
CIRCLE
  8
0
 62
0
 10
63.5
 20
91.948
 30
0.0
 40
2.9
  0
CIRCLE
  8
0
 62
0
 10
12.7
 20
91.948
 30
0.0
 40
2.9
  0
CIRCLE
  8
0
 62
0
 10
63.5
 20
238.252
 30
0.0
 40
2.9
  0
CIRCLE
  8
0
 62
0
 10
161.798
 20
258.318
 30
0.0
 40
2.9
  0
CIRCLE
  8
0
 62
0
 10
141.732
 20
258.318
 30
0.0
 40
2.9
  0
CIRCLE
  8
0
 62
0
 10
63.5
 20
258.318
 30
0.0
 40
2.9
  0
CIRCLE
  8
0
 62
0
 10
63.5
 20
298.45
 30
0.0
 40
2.9
  0
CIRCLE
  8
0
 62
0
 10
63.5
 20
278.384
 30
0.0
 40
2.9
  0
ENDBLK
  0
ENDSEC
  0
SECTION
  2
ENTITIES
  0
INSERT
  2
FILLET
  8
0
 62
0
 10
0.0
 20
0.0
 30
0.0
  0
ENDSEC
  0
EOF
